<?xml version="1.0" encoding="utf-8"?>
<!-- Generator: Adobe Illustrator 25.2.1, SVG Export Plug-In . SVG Version: 6.00 Build 0)  -->
<svg version="1.1" id="Layer_1" xmlns="http://www.w3.org/2000/svg" xmlns:xlink="http://www.w3.org/1999/xlink" x="0px" y="0px"
	 viewBox="0 0 297 297" style="enable-background:new 0 0 297 297;" xml:space="preserve">
<style type="text/css">
	.st0{fill:#C0392B;}
	.st1{fill:#A5362C;}
	.st2{fill:#ECF0F1;}
</style>
<g>
	<g>
		<g>
			<g>
				<circle class="st0" cx="148.5" cy="148.5" r="148.5"/>
			</g>
		</g>
	</g>
	<path class="st1" d="M245.3,127.5l-193.7,42l124.8,124.9C236.1,283,283,236.1,294.4,176.5L245.3,127.5z"/>
	<g>
		<rect x="51.7" y="127.5" class="st2" width="193.7" height="42"/>
	</g>
</g>
</svg>
